DEBUG:root:Message: 

DEBUG:selenium.webdriver.remote.remote_connection:POST http://127.0.0.1:54059/session/e34e5c5d66e2ea66956606eef88052a2/url {"url": "https://m.facebook.com/story.php?story_fbid=526185931155576&id=526028914504611&__tn__=-R", "sessionId": "e34e5c5d66e2ea66956606eef88052a2"}
DEBUG:urllib3.connectionpool:http://127.0.0.1:54059 "POST /session/e34e5c5d66e2ea66956606eef88052a2/url HTTP/1.1" 200 72
DEBUG:selenium.webdriver.remote.remote_connection:Finished Request
DEBUG:selenium.webdriver.remote.remote_connection:POST http://127.0.0.1:54059/session/e34e5c5d66e2ea66956606eef88052a2/element {"using": "css selector", "sessionId": "e34e5c5d66e2ea66956606eef88052a2", "value": "div[data-sigil$=page_post_button]"}
DEBUG:urllib3.connectionpool:http://127.0.0.1:54059 "POST /session/e34e5c5d66e2ea66956606eef88052a2/element HTTP/1.1" 200 366
DEBUG:selenium.webdriver.remote.remote_connection:Finished Request
DEBUG:selenium.webdriver.remote.remote_connection:POST http://127.0.0.1:54059/session/e34e5c5d66e2ea66956606eef88052a2/element {"using": "css selector", "sessionId": "e34e5c5d66e2ea66956606eef88052a2", "value": "div[data-sigil$=page_post_button]"}
DEBUG:urllib3.connectionpool:http://127.0.0.1:54059 "POST /session/e34e5c5d66e2ea66956606eef88052a2/element HTTP/1.1" 200 366
DEBUG:selenium.webdriver.remote.remote_connection:Finished Request
DEBUG:selenium.webdriver.remote.remote_connection:POST http://127.0.0.1:54059/session/e34e5c5d66e2ea66956606eef88052a2/element {"using": "css selector", "sessionId": "e34e5c5d66e2ea66956606eef88052a2", "value": "div[data-sigil$=page_post_button]"}
DEBUG:urllib3.connectionpool:http://127.0.0.1:54059 "POST /session/e34e5c5d66e2ea66956606eef88052a2/element HTTP/1.1" 200 366
DEBUG:selenium.webdriver.remote.remote_connection:Finished Request
DEBUG:selenium.webdriver.remote.remote_connection:POST http://127.0.0.1:54059/session/e34e5c5d66e2ea66956606eef88052a2/element {"using": "css selector", "sessionId": "e34e5c5d66e2ea66956606eef88052a2", "value": "div[data-sigil$=page_post_button]"}
DEBUG:urllib3.connectionpool:http://127.0.0.1:54059 "POST /session/e34e5c5d66e2ea66956606eef88052a2/element HTTP/1.1" 200 366
DEBUG:selenium.webdriver.remote.remote_connection:Finished Request
DEBUG:selenium.webdriver.remote.remote_connection:POST http://127.0.0.1:54059/session/e34e5c5d66e2ea66956606eef88052a2/element {"using": "css selector", "sessionId": "e34e5c5d66e2ea66956606eef88052a2", "value": "div[data-sigil$=page_post_button]"}
DEBUG:urllib3.connectionpool:http://127.0.0.1:54059 "POST /session/e34e5c5d66e2ea66956606eef88052a2/element HTTP/1.1" 200 366
DEBUG:selenium.webdriver.remote.remote_connection:Finished Request
DEBUG:selenium.webdriver.remote.remote_connection:POST http://127.0.0.1:54059/session/e34e5c5d66e2ea66956606eef88052a2/element {"using": "css selector", "sessionId": "e34e5c5d66e2ea66956606eef88052a2", "value": "div[data-sigil$=page_post_button]"}
DEBUG:urllib3.connectionpool:http://127.0.0.1:54059 "POST /session/e34e5c5d66e2ea66956606eef88052a2/element HTTP/1.1" 200 366
DEBUG:selenium.webdriver.remote.remote_connection:Finished Request
DEBUG:selenium.webdriver.remote.remote_connection:POST http://127.0.0.1:54059/session/e34e5c5d66e2ea66956606eef88052a2/element {"using": "css selector", "sessionId": "e34e5c5d66e2ea66956606eef88052a2", "value": "div[data-sigil$=page_post_button]"}
DEBUG:urllib3.connectionpool:http://127.0.0.1:54059 "POST /session/e34e5c5d66e2ea66956606eef88052a2/element HTTP/1.1" 200 366
DEBUG:selenium.webdriver.remote.remote_connection:Finished Request
DEBUG:selenium.webdriver.remote.remote_connection:POST http://127.0.0.1:54059/session/e34e5c5d66e2ea66956606eef88052a2/element {"using": "css selector", "sessionId": "e34e5c5d66e2ea66956606eef88052a2", "value": "div[data-sigil$=page_post_button]"}
DEBUG:urllib3.connectionpool:http://127.0.0.1:54059 "POST /session/e34e5c5d66e2ea66956606eef88052a2/element HTTP/1.1" 200 366
DEBUG:selenium.webdriver.remote.remote_connection:Finished Request
DEBUG:selenium.webdriver.remote.remote_connection:POST http://127.0.0.1:54059/session/e34e5c5d66e2ea66956606eef88052a2/element {"using": "css selector", "sessionId": "e34e5c5d66e2ea66956606eef88052a2", "value": "div[data-sigil$=page_post_button]"}
DEBUG:urllib3.connectionpool:http://127.0.0.1:54059 "POST /session/e34e5c5d66e2ea66956606eef88052a2/element HTTP/1.1" 200 366
DEBUG:selenium.webdriver.remote.remote_connection:Finished Request
DEBUG:selenium.webdriver.remote.remote_connection:POST http://127.0.0.1:54059/session/e34e5c5d66e2ea66956606eef88052a2/element {"using": "css selector", "sessionId": "e34e5c5d66e2ea66956606eef88052a2", "value": "div[data-sigil$=page_post_button]"}
DEBUG:urllib3.connectionpool:http://127.0.0.1:54059 "POST /session/e34e5c5d66e2ea66956606eef88052a2/element HTTP/1.1" 200 366
DEBUG:selenium.webdriver.remote.remote_connection:Finished Request
DEBUG:selenium.webdriver.remote.remote_connection:POST http://127.0.0.1:54059/session/e34e5c5d66e2ea66956606eef88052a2/element {"using": "css selector", "sessionId": "e34e5c5d66e2ea66956606eef88052a2", "value": "div[data-sigil$=page_post_button]"}
DEBUG:urllib3.connectionpool:http://127.0.0.1:54059 "POST /session/e34e5c5d66e2ea66956606eef88052a2/element HTTP/1.1" 200 265
DEBUG:selenium.webdriver.remote.remote_connection:Finished Request
DEBUG:root:Message: chrome not reachable
  (Session info: chrome=68.0.3440.106)
  (Driver info: chromedriver=2.42.591088 (7b2b2dca23cca0862f674758c9a3933e685c27d5),platform=Windows NT 10.0.14393 x86)

DEBUG:selenium.webdriver.remote.remote_connection:POST http://127.0.0.1:54059/session/e34e5c5d66e2ea66956606eef88052a2/url {"url": "https://m.facebook.com/story.php?story_fbid=526181681156001&id=526028914504611&__tn__=-R", "sessionId": "e34e5c5d66e2ea66956606eef88052a2"}
DEBUG:urllib3.connectionpool:http://127.0.0.1:54059 "POST /session/e34e5c5d66e2ea66956606eef88052a2/url HTTP/1.1" 200 265
DEBUG:selenium.webdriver.remote.remote_connection:Finished Request
